

def generateGrid(coordinates):

    x_coordinates = list(range(int(coordinates[0]), int(coordinates[2]) + 1))
    y_coordinates = list(range(int(coordinates[1]), int(coordinates[3]) + 1))

    return [(x, y) for x in x_coordinates for y in y_coordinates]
print(generateGrid(coordinates)) 


#To get the no.of days to complete the country
def no_of_days_countries(countries):                           #countries in each test case ex: for first test case countries=['France','spain','protugal].
  l2=[]
  l3=[]
  l4=[]
  days_list=[]
  for k in range(len(countries)):
    days_of_city=no_of_days_cities(coordinate_pairs[k])          #coordinaets of the cites previously we get.
    l3.append(country[k])
    l4.append(days_of_country)
  print(l3)
  print(l4)  
output(l3,l4) 


#output is given by this function
days_list=[]
l5=[]
def output(l3,l4):
 for v in range(1,case+1) :                    # case will give the no.of test cases.
  print("Case Number",v) 
  for i in range(len(l4)):
    mini=max(l4)
    l5.append(l[i])
    l5.append(mini)
    days_list.append(l5)
    l4.pop(mini)
  #print(days_list)
  for s in range(len(days_list)):
    for s1 in (days_list[s]):
      print(s1,end=" ")
    print("\n")  
      